%YAML 1.1
%TAG !u! tag:unity3d.com,2011:
--- !u!21 &2100000
Material:
  serializedVersion: 6
  m_ObjectHideFlags: 0
  m_PrefabParentObject: {fileID: 0}
  m_PrefabInternal: {fileID: 0}
  m_Name: Pipe
  m_Shader: {fileID: 4, guid: 0000000000000000f000000000000000, type: 0}
  m_ShaderKeywords: 
  m_LightmapFlags: 5
  m_CustomRenderQueue: -1
  stringTagMap: {}
  m_SavedProperties:
    serializedVersion: 2
    m_TexEnvs:
    - first:
        name: _BumpMap
      second:
        m_Texture: {fileID: 2800000, guid: 40c45872e4276dd40a05a2c1c55b0acb, type: 3}
        m_Scale: {x: 3, y: 3}
        m_Offset: {x: 0, y: 0}
    - first:
        name: _MainTex
      second:
        m_Texture: {fileID: 2800000, guid: b7ac73b974ceb414c88d6c00e1444b88, type: 3}
        m_Scale: {x: 3, y: 3}
        m_Offset: {x: 0, y: 0}
    m_Floats:
    - first:
        name: _Shininess
      second: 0.21697056
    m_Colors:
    - first:
        name: _Color
      second: {r: 1, g: 1, b: 1, a: 1}
    - first:
        name: _SpecColor
      second: {r: 1, g: 0.989858, b: 0.85294116, a: 1}
